<?xml version="1.0" encoding="UTF-8"?>
<svg width="15px" height="16px" viewBox="0 0 15 16" version="1.1" xmlns="http://www.w3.org/2000/svg" xmlns:xlink="http://www.w3.org/1999/xlink">
    <!-- Generator: Sketch 57.1 (83088) - https://sketch.com -->
    <title>icon/home</title>
    <desc>Created with Sketch.</desc>
    <g id="Styles" stroke="none" stroke-width="1" fill="none" fill-rule="evenodd">
        <g id="home" fill="#FFFFFF">
            <path d="M13.0909091,13.8181818 C13.0909091,14.2196364 12.7650909,14.5454545 12.3636364,14.5454545 L10.1818182,14.5454545 L10.1818182,8 C10.1818182,7.59854545 9.85672727,7.27272727 9.45454545,7.27272727 L5.09090909,7.27272727 C4.68945455,7.27272727 4.36363636,7.59854545 4.36363636,8 L4.36363636,14.5454545 L2.18181818,14.5454545 C1.78109091,14.5454545 1.45454545,14.2196364 1.45454545,13.8181818 L1.45454545,6.17381818 L7.27272727,1.64872727 L13.0909091,6.17381818 L13.0909091,13.8181818 Z M5.81818182,14.5454545 L8.72727273,14.5454545 L8.72727273,8.72727273 L5.81818182,8.72727273 L5.81818182,14.5454545 Z M14.2647273,5.24363636 L7.71927273,0.152727273 C7.45672727,-0.0509090909 7.08872727,-0.0509090909 6.82618182,0.152727273 L0.280727273,5.24363636 C0.104,5.38181818 -2.04281037e-14,5.59345455 -2.04281037e-14,5.81818182 L-2.04281037e-14,13.8181818 C-2.04281037e-14,15.0210909 0.978909091,16 2.18181818,16 L12.3636364,16 C13.5665455,16 14.5454545,15.0210909 14.5454545,13.8181818 L14.5454545,5.81818182 C14.5454545,5.59345455 14.4414545,5.38181818 14.2647273,5.24363636 L14.2647273,5.24363636 Z"></path>
        </g>
    </g>
</svg>
