<?xml version="1.0" encoding="UTF-8"?>
<svg width="16px" height="16px" viewBox="0 0 16 16" version="1.1" xmlns="http://www.w3.org/2000/svg" xmlns:xlink="http://www.w3.org/1999/xlink">
    <!-- Generator: Sketch 57.1 (83088) - https://sketch.com -->
    <title>icon/arrow/left</title>
    <desc>Created with Sketch.</desc>
    <g id="Styles" stroke="none" stroke-width="1" fill="none" fill-rule="evenodd">
        <g id="left" transform="translate(-0.000150, -0.000250)" fill="#FFFFFF">
            <path d="M14.99875,7.00025 L3.41275,7.00025 L8.70575,1.70725 C9.09675,1.31625 9.09675,0.68425 8.70575,0.29325 C8.31475,-0.09775 7.68275,-0.09775 7.29175,0.29325 L0.29175,7.29225 C0.19975,7.38525 0.12675,7.49625 0.07575,7.61825 C-0.02525,7.86225 -0.02525,8.13825 0.07575,8.38225 C0.12675,8.50425 0.19975,8.61525 0.29175,8.70825 L7.29175,15.70725 C7.48675,15.90225 7.74275,16.00025 7.99875,16.00025 C8.25475,16.00025 8.51075,15.90225 8.70575,15.70725 C9.09675,15.31625 9.09675,14.68425 8.70575,14.29325 L3.41275,9.00025 L14.99875,9.00025 C15.55175,9.00025 15.99875,8.55225 15.99875,8.00025 C15.99875,7.44825 15.55175,7.00025 14.99875,7.00025"></path>
        </g>
    </g>
</svg>
