<?xml version="1.0" encoding="UTF-8"?>
<svg width="16px" height="10px" viewBox="0 0 16 10" version="1.1" xmlns="http://www.w3.org/2000/svg" xmlns:xlink="http://www.w3.org/1999/xlink">
    <!-- Generator: Sketch 57.1 (83088) - https://sketch.com -->
    <title>icon/chevron/down</title>
    <desc>Created with Sketch.</desc>
    <g id="Styles" stroke="none" stroke-width="1" fill="none" fill-rule="evenodd">
        <g id="down" fill="#FFFFFF">
            <path d="M8.00025,9.14310204 C7.70767988,9.14310204 7.41510976,9.03110254 7.19225361,8.80824639 L0.335141361,1.95113415 C-0.111713787,1.504279 -0.111713787,0.781996509 0.335141361,0.335141361 C0.781996509,-0.111713787 1.504279,-0.111713787 1.95113415,0.335141361 L8.00025,6.38425721 L14.0493659,0.335141361 C14.496221,-0.111713787 15.2185035,-0.111713787 15.6653586,0.335141361 C16.1122138,0.781996509 16.1122138,1.504279 15.6653586,1.95113415 L8.80824639,8.80824639 C8.58539024,9.03110254 8.29282012,9.14310204 8.00025,9.14310204"></path>
        </g>
    </g>
</svg>
