<?xml version="1.0" encoding="UTF-8"?>
<svg width="16px" height="16px" viewBox="0 0 16 16" version="1.1" xmlns="http://www.w3.org/2000/svg" xmlns:xlink="http://www.w3.org/1999/xlink">
    <!-- Generator: Sketch 57.1 (83088) - https://sketch.com -->
    <title>icon/arrow/down</title>
    <desc>Created with Sketch.</desc>
    <g id="Styles" stroke="none" stroke-width="1" fill="none" fill-rule="evenodd">
        <g id="down" transform="translate(-0.000250, 0.000000)" fill="#FFFFFF">
            <path d="M15.7067592,7.293 C15.3157714,6.902 14.6837911,6.902 14.2928033,7.293 L8.99996875,12.586 L8.99996875,1 C8.99996875,0.448 8.55198275,0 8,0 C7.44801725,0 7.00003125,0.448 7.00003125,1 L7.00003125,12.586 L1.70719665,7.293 C1.31620887,6.902 0.684228618,6.902 0.293240836,7.293 C-0.0977469454,7.684 -0.0977469454,8.316 0.293240836,8.707 L7.29202212,15.706 C7.38501922,15.799 7.49501578,15.872 7.61801194,15.923 C7.74000812,15.974 7.87000406,16 8,16 C8.12999594,16 8.25999188,15.974 8.38198806,15.923 C8.50498422,15.872 8.61498078,15.799 8.70697791,15.706 L15.7067592,8.707 C16.0977469,8.316 16.0977469,7.684 15.7067592,7.293"></path>
        </g>
    </g>
</svg>
